sequential/two_way_count.vcd
$date
	Sun Oct 17 02:48:49 2021
$end
$version
	Icarus Verilog
$end
$timescale
	1s
$end
$scope module stimulus_two_way_count $end
$scope module c0 $end
$var wire 1 ! clk $end
$var wire 1 " q0d0 $end
$var wire 1 # q1d0 $end
$var wire 1 $ q1d0x $end
$var wire 1 % reset $end
$var wire 1 & x $end
$var wire 2 ' q [1:0] $end
$scope module d0 $end
$var wire 1 ! clk $end
$var wire 1 " d $end
$var wire 1 % reset $end
$var reg 1 ( q $end
$upscope $end
$scope module d1 $end
$var wire 1 ! clk $end
$var wire 1 $ d $end
$var wire 1 % reset $end
$var reg 1 ) q $end
$upscope $end
$upscope $end
$upscope $end
$enddefinitions $end
#0
$dumpvars
0)
0(
b0 '
1&
1%
1$
0#
1"
0!
$end
#5
1!
#10
0!
#15
1!
#20
0!
#25
1!
#30
0"
1)
b11 '
1(
0!
0%
#35
1!
#40
0$
1#
1"
b10 '
0(
0!
#45
1!
#50
1$
0#
b0 '
0)
0!
1%
#55
1!
0%
#60
0"
1(
b11 '
1)
0!
#65
1!
#70
0$
1#
1"
b10 '
0(
0!
#75
1!
#80
0"
1(
b1 '
0)
0!
#85
1!
#90
1$
0#
1"
b0 '
0(
0!
#95
1!
#100
0"
1(
b11 '
1)
0!
#105
1!
#110
0$
1#
1"
b10 '
0(
0!
#115
1!
#120
0"
1(
b1 '
0)
0!
#125
1!
#130
1$
0#
1"
b0 '
0(
0!
#135
1!
#140
0"
1(
b11 '
1)
0!
#145
1!
#150
0$
1#
1"
b10 '
0(
0!
